{
    "name": "ecap2-webclient-platform",
    "version": "0.0.0",
    "license": "MIT",
    "scripts": {
        "ng": "ng",
        "start": "ng serve",
        "test": "ng test",
        "lint": "ng lint",
        "e2e": "ng e2e",
        "build-app": "node scripts/app-publisher.js",
        "build-core": "node scripts/core-publisher.js"
    },
    "private": true,
    "dependencies": {
        "@agm/core": "1.0.0-beta.2",
        "@angular-devkit/core": "^0.3.1",
        "@angular/animations": "5.1.3",
        "@angular/cdk": "5.0.3",
        "@angular/common": "5.1.3",
        "@angular/compiler": "5.1.3",
        "@angular/core": "5.1.3",
        "@angular/flex-layout": "2.0.0-beta.12",
        "@angular/forms": "5.1.3",
        "@angular/http": "5.1.3",
        "@angular/material": "5.0.3",
        "@angular/material-moment-adapter": "5.0.3",
        "@angular/platform-browser": "5.1.3",
        "@angular/platform-browser-dynamic": "5.1.3",
        "@angular/platform-server": "5.0.0",
        "@angular/router": "5.1.3",
        "@ecap3/app-platform-breadcrumb": "0.0.1",
        "@ecap3/app-platform-catalog": "0.0.1",
        "@ecap3/app-platform-catalog-tab": "0.0.1",
        "@ecap3/app-platform-chart": "0.0.1",
        "@ecap3/app-platform-core-components": "0.0.1",
        "@ecap3/app-platform-customer": "0.0.1",
        "@ecap3/app-platform-customer-card": "0.0.1",
        "@ecap3/app-platform-customer-list": "0.0.1",
        "@ecap3/app-platform-customer-shared-module": "0.0.1",
        "@ecap3/app-platform-customer-tab": "0.0.5",
        "@ecap3/app-platform-datatable": "0.0.1",
        "@ecap3/app-platform-login": "0.0.1",
        "@ecap3/app-platform-partner": "0.0.1",
        "@ecap3/app-platform-read-more": "0.0.1",
        "@ecap3/app-platform-tab-container": "0.0.1",
        "@ecap3/app-shared-module": "0.0.1",
        "@ecap3/core": "0.0.1",
        "@ecap3/dialog": "0.0.1",
        "@ecap3/file-uploader": "0.0.1",
        "@ecap3/template-atlas": "0.0.1",
        "@ecap3/template-themes": "0.0.1",
        "@nguniversal/express-engine": "5.0.0-beta.1",
        "@nguniversal/module-map-ngfactory-loader": "1.0.0-beta.3",
        "@swimlane/ngx-charts": "^7.1.1",
        "@swimlane/ngx-datatable": "^11.1.7",
        "@types/prismjs": "1.9.0",
        "angular-file-upload": "^2.5.0",
        "angular-material-fileupload": "0.0.8",
        "btoa": "^1.1.2",
        "chalk": "^2.3.1",
        "classlist.js": "^1.1.20150312",
        "core-js": "2.5.3",
        "d3": "^4.13.0",
        "font-awesome": "^4.7.0",
        "hammerjs": "2.0.8",
        "intl": "1.2.5",
        "material-design-icons": "^3.0.1",
        "moment": "2.20.1",
        "ng-dynamic": "^3.0.2",
        "ngx-avatar": "^2.9.0",
        "ngx-google-places-autocomplete": "^2.0.1",
        "node-sass": "^4.7.2",
        "perfect-scrollbar": "1.3.0",
        "prismjs": "1.9.0",
        "rxjs": "5.5.6",
        "ts-loader": "3.1.1",
        "web-animations-js": "2.3.1",
        "xhr2": "0.1.4",
        "zone.js": "0.8.19"
    },
    "devDependencies": {
        "@angular/cli": "^1.6.5",
        "@angular/compiler-cli": "5.1.3",
        "@angular/language-service": "5.1.3",
        "@angular/tsc-wrapped": "^4.4.6",
        "@angularclass/hmr": "2.1.3",
        "@types/jasmine": "2.5.54",
        "@types/jasminewd2": "2.0.3",
        "@types/node": "6.0.96",
        "codelyzer": "4.0.2",
        "jasmine-core": "2.6.4",
        "jasmine-spec-reporter": "4.1.1",
        "karma": "1.7.1",
        "karma-chrome-launcher": "2.1.1",
        "karma-cli": "1.0.1",
        "karma-coverage-istanbul-reporter": "1.3.3",
        "karma-jasmine": "1.1.1",
        "karma-jasmine-html-reporter": "0.2.2",
        "ng-packagr": "^1.5.0",
        "protractor": "5.1.2",
        "ts-node": "3.2.2",
        "tslint": "5.7.0",
        "typescript": "2.4.2",
        "webpack-bundle-analyzer": "2.9.2"
    }
}